{
  "development": {
    "username": "postgres",
    "password": "fryz2K",
    "database": "challenge-08",
    "host": "127.0.0.1",
    "dialect": "postgres"
  },
  "test": {
    "username": "postgres",
    "password": "fryz2K",
    "database": "challenge-08_test",
    "host": "127.0.0.1",
    "dialect": "postgres"
  },
  "production": {
    "use_env_variable": "DATABASE_URL",
    "dialect": "postgres",
    "dialectOptions": {
       "ssl": {
         "require": true,
         "rejectUnauthorized": false
       }
     }
  }
}
